    =========================================================================
                                                            Powered by Kuliza
    =========================================================================
      ____
     / ___|   ___    _ __ ___    _ __ ___     ___    _ __
    | |      / _ \  | '_ ` _ \  | '_ ` _ \   / _ \  | '_ \
    | |___  | (_) | | | | | | | | | | | | | | (_) | | | | |
     \____|  \___/  |_| |_| |_| |_| |_| |_|  \___/  |_| |_|  (v1.0.0.RELEASE)
    =========================================================================
